{
  "project_info": {
    "project_number": "887022365020",
    "firebase_url": "https://haulio-3b40c.firebaseio.com",
    "project_id": "haulio-3b40c",
    "storage_bucket": "haulio-3b40c.appspot.com"
  },
  "client": [
    {
      "client_info": {
        "mobilesdk_app_id": "1:887022365020:android:4e04dd3817e505cccfb999",
        "android_client_info": {
          "package_name": "com.thetaunaung.haulio"
        }
      },
      "oauth_client": [
        {
          "client_id": "887022365020-4srio1ghv6s8coau5qk4flu76rvvkl6r.apps.googleusercontent.com",
          "client_type": 1,
          "android_info": {
            "package_name": "com.thetaunaung.haulio",
            "certificate_hash": "40032d625c9c5264b40e885a124a7e834bde36e6"
          }
        },
        {
          "client_id": "887022365020-9p8agib746hjv901ukotdurid1ues2a7.apps.googleusercontent.com",
          "client_type": 1,
          "android_info": {
            "package_name": "com.thetaunaung.haulio",
            "certificate_hash": "dc053e55e7c1c9bd10828292190e7e255c930ef0"
          }
        },
        {
          "client_id": "887022365020-9t3s041cdf2j32fm6qq3viusafqskof3.apps.googleusercontent.com",
          "client_type": 3
        }
      ],
      "api_key": [
        {
          "current_key": "AIzaSyA-LjhN0Bi3IEBSI4USFx39jQH5RbgwU6c"
        }
      ],
      "services": {
        "appinvite_service": {
          "other_platform_oauth_client": [
            {
              "client_id": "887022365020-9t3s041cdf2j32fm6qq3viusafqskof3.apps.googleusercontent.com",
              "client_type": 3
            }
          ]
        }
      }
    }
  ],
  "configuration_version": "1"
}